#Command: "C:\Program Files (x86)\Microsoft Visual Studio\2017\Community\VC\Tools\MSVC\14.16.27023\bin\HostX86\x64\link.exe" /ERRORREPORT:PROMPT @C:\Users\prtrz\AppData\Local\Temp\tmpd801183cc434449ab5db1f2012dd31ff.rsp
^E:\C++\OF_V0.10.0_VS2017_RELEASE\OF_V0.10.0_VS2017_RELEASE\LIBS\OPENFRAMEWORKSCOMPILED\LIB\VS\X64\OPENFRAMEWORKSLIB_DEBUG.LIB|E:\CODEOFMINE\C++\C++\OF_V0.10.0_VS2017_RELEASE\OF_V0.10.0_VS2017_RELEASE\ADDONS\OFXGUI\SRC\OFXBASEGUI.OBJ|E:\CODEOFMINE\C++\C++\OF_V0.10.0_VS2017_RELEASE\OF_V0.10.0_VS2017_RELEASE\ADDONS\OFXGUI\SRC\OFXBUTTON.OBJ|E:\CODEOFMINE\C++\C++\OF_V0.10.0_VS2017_RELEASE\OF_V0.10.0_VS2017_RELEASE\ADDONS\OFXGUI\SRC\OFXCOLORPICKER.OBJ|E:\CODEOFMINE\C++\C++\OF_V0.10.0_VS2017_RELEASE\OF_V0.10.0_VS2017_RELEASE\ADDONS\OFXGUI\SRC\OFXGUIGROUP.OBJ|E:\CODEOFMINE\C++\C++\OF_V0.10.0_VS2017_RELEASE\OF_V0.10.0_VS2017_RELEASE\ADDONS\OFXGUI\SRC\OFXINPUTFIELD.OBJ|E:\CODEOFMINE\C++\C++\OF_V0.10.0_VS2017_RELEASE\OF_V0.10.0_VS2017_RELEASE\ADDONS\OFXGUI\SRC\OFXLABEL.OBJ|E:\CODEOFMINE\C++\C++\OF_V0.10.0_VS2017_RELEASE\OF_V0.10.0_VS2017_RELEASE\ADDONS\OFXGUI\SRC\OFXPANEL.OBJ|E:\CODEOFMINE\C++\C++\OF_V0.10.0_VS2017_RELEASE\OF_V0.10.0_VS2017_RELEASE\ADDONS\OFXGUI\SRC\OFXSLIDER.OBJ|E:\CODEOFMINE\C++\C++\OF_V0.10.0_VS2017_RELEASE\OF_V0.10.0_VS2017_RELEASE\ADDONS\OFXGUI\SRC\OFXSLIDERGROUP.OBJ|E:\CODEOFMINE\C++\C++\OF_V0.10.0_VS2017_RELEASE\OF_V0.10.0_VS2017_RELEASE\ADDONS\OFXGUI\SRC\OFXTOGGLE.OBJ|E:\CODEOFMINE\C++\C++\OF_V0.10.0_VS2017_RELEASE\OF_V0.10.0_VS2017_RELEASE\ADDONS\OFXMAXIM\LIBS\FFT.OBJ|E:\CODEOFMINE\C++\C++\OF_V0.10.0_VS2017_RELEASE\OF_V0.10.0_VS2017_RELEASE\ADDONS\OFXMAXIM\LIBS\MAXIATOMS.OBJ|E:\CODEOFMINE\C++\C++\OF_V0.10.0_VS2017_RELEASE\OF_V0.10.0_VS2017_RELEASE\ADDONS\OFXMAXIM\LIBS\MAXIBARK.OBJ|E:\CODEOFMINE\C++\C++\OF_V0.10.0_VS2017_RELEASE\OF_V0.10.0_VS2017_RELEASE\ADDONS\OFXMAXIM\LIBS\MAXIFFT.OBJ|E:\CODEOFMINE\C++\C++\OF_V0.10.0_VS2017_RELEASE\OF_V0.10.0_VS2017_RELEASE\ADDONS\OFXMAXIM\LIBS\MAXIGRAINS.OBJ|E:\CODEOFMINE\C++\C++\OF_V0.10.0_VS2017_RELEASE\OF_V0.10.0_VS2017_RELEASE\ADDONS\OFXMAXIM\LIBS\MAXIMFCC.OBJ|E:\CODEOFMINE\C++\C++\OF_V0.10.0_VS2017_RELEASE\OF_V0.10.0_VS2017_RELEASE\ADDONS\OFXMAXIM\LIBS\MAXIMILIAN.OBJ|E:\CODEOFMINE\C++\C++\OF_V0.10.0_VS2017_RELEASE\OF_V0.10.0_VS2017_RELEASE\ADDONS\OFXMAXIM\LIBS\STB_VORBIS.OBJ|E:\CODEOFMINE\C++\INHERITANCEPOINT\OBJ\DEBUG\ICON.RES|E:\CODEOFMINE\C++\INHERITANCEPOINT\OBJ\DEBUG\SRC\BLOCK.OBJ|E:\CODEOFMINE\C++\INHERITANCEPOINT\OBJ\DEBUG\SRC\MAIN.OBJ|E:\CODEOFMINE\C++\INHERITANCEPOINT\OBJ\DEBUG\SRC\OFAPP.OBJ|E:\CODEOFMINE\C++\INHERITANCEPOINT\OBJ\DEBUG\SRC\POSITIONMARKER.OBJ|E:\CODEOFMINE\C++\INHERITANCEPOINT\OBJ\DEBUG\SRC\TREEBLOCK.OBJ
C:\USERS\PRTRZ\APPDATA\LOCAL\TEMP\LNK{8E254656-31BC-4FFE-BD2F-C65CE11BA635}.TMP
